Exploratory data analysis – UMCG R Primers
…
Review 2: Quality or Quantity?

When you begin to explore data, is it better to formulate one or two high-quality questions to ask, or many, many questions to explore?

One or two high-quality questions

Many, many questions

Review 3: Definitions

penguins is a fun example dataset that comes with the {palmerpenguins} package. The data set describes 344 penguins spread across 3 islands in the Palmer Archipelago, Antarctica. Each row in penguins displays a details about a bird, including the island it lives on, its bill length, its bill depth (i.e. how tall the bill is), its flipper length, its body mass, its sex, and the year its measurements were taken. You can use these measurements to deduce the penguin’s species, which is also included in penguins.

penguins

# A tibble: 344 × 8
   species island    bill_length_mm bill_depth_mm flipper_length_mm body_mass_g sex     year
   <fct>   <fct>              <dbl>         <dbl>             <int>       <int> <fct>  <int>
 1 Adelie  Torgersen           39.1          18.7               181        3750 male    2007
 2 Adelie  Torgersen           39.5          17.4               186        3800 female  2007
 3 Adelie  Torgersen           40.3          18                 195        3250 female  2007
 4 Adelie  Torgersen           NA            NA                  NA          NA <NA>    2007
 5 Adelie  Torgersen           36.7          19.3               193        3450 female  2007
 6 Adelie  Torgersen           39.3          20.6               190        3650 male    2007
 7 Adelie  Torgersen           38.9          17.8               181        3625 female  2007
 8 Adelie  Torgersen           39.2          19.6               195        4675 male    2007
 9 Adelie  Torgersen           34.1          18.1               193        3475 <NA>    2007
10 Adelie  Torgersen           42            20.2               190        4250 <NA>    2007
# ℹ 334 more rows
…
